/Users/renukamatkar/Documents/gmailproject/gmail-demo/src/test/java/com/selenium/gmail/testcases/FileUpload.java
/Users/renukamatkar/Documents/gmailproject/gmail-demo/src/test/java/com/selenium/gmail/testcases/LoginTest.java
/Users/renukamatkar/Documents/gmailproject/gmail-demo/src/test/java/com/selenium/gmail/testcases/SearchButtonTest.java
